{
    "title": "TYPO3 Schema-org",
    "subtitle": "This extension is very easy to use. Simply install and include the delivered static template.",
    "logo": "../ext_icon.svg",
    "markdown": "../Readme.en.md",
    "meta": {
        "description": "TYPO3 Schema-org - This extension is very easy to use. Simply install and include the delivered static template.",
        "abstract": "Adds Schema.org information into your site.",
        "keywords": "TYPO3, extension, Schema, Schema.org, structured data",
        "og:title": "TYPO3 Schema-org",
        "og:description": "TYPO3 Schema-org - This extension is very easy to use. Simply install and include the delivered static template."
    },
    "features": [
        "Easy to use",
        "Simply install and link in the provided static template",
        "Configure schema data in Setup-TypoScript"
    ],
    "links": {
        "product": {
            "link": "https://www.coding.ms/typo3-extensions/typo3-schemaorg",
            "name": "TYPO3 Schema.org Productdetails"
        }
    }
}
